<?xml version="1.0" encoding="utf-8"?>
<!-- Generator: Adobe Illustrator 22.0.1, SVG Export Plug-In . SVG Version: 6.00 Build 0)  -->
<svg version="1.1" id="Capa_1" xmlns="http://www.w3.org/2000/svg" xmlns:xlink="http://www.w3.org/1999/xlink" x="0px" y="0px"
	 viewBox="0 0 512 512" style="enable-background:new 0 0 512 512;" xml:space="preserve">
<style type="text/css">
	.st0{fill:#3C8DBC;}
</style>
<g>
	<g id="chevron-right">
		<polygon class="st0" points="512,157.9 452.3,98.1 256,294.4 59.7,98.1 0,157.9 256,413.9 		"/>
	</g>
</g>
</svg>
