<?xml version="1.0" encoding="UTF-8"?>
<svg width="98px" height="40px" viewBox="0 0 98 40" version="1.1" xmlns="http://www.w3.org/2000/svg" xmlns:xlink="http://www.w3.org/1999/xlink">
    <!-- Generator: Sketch 53.1 (72631) - https://sketchapp.com -->
    <title>carreg</title>
    <desc>Created with Sketch.</desc>
    <g id="Associates" stroke="none" stroke-width="1" fill="none" fill-rule="evenodd">
        <g id="Associates-concept-3---v2" transform="translate(-58.000000, -2080.000000)" fill="#B6B8BB" fill-rule="nonzero">
            <g id="Feature_articles" transform="translate(0.000000, 2033.000000)">
                <g id="cols" transform="translate(58.000000, 20.000000)">
                    <g id="Article_1">
                        <g id="carreg" transform="translate(0.000000, 27.000000)">
                            <path d="M86.0255134,1.03962264 C85.4299938,0.437735849 84.5637834,0 83.643435,0 L3.35656503,0 C2.43621655,0 1.57000622,0.383018868 0.974486621,1.03962264 C0.378967019,1.64150943 0,2.51698113 0,3.44716981 L0,25.5528302 C0,26.5377358 0.378967019,27.3584906 0.974486621,28.0150943 C1.57000622,28.6169811 2.43621655,29 3.35656503,29 L83.643435,29 C84.5637834,29 85.4299938,28.6169811 86.0255134,28.0150943 C86.621033,27.4132075 87,26.5377358 87,25.6075472 L87,3.44716981 C87,2.51698113 86.621033,1.64150943 86.0255134,1.03962264 Z M85.9172371,25.6075472 C85.9172371,26.9207547 84.9427505,27.9056604 83.643435,27.9056604 L3.35656503,27.9056604 C2.70690728,27.9056604 2.16552582,27.6320755 1.73242066,27.2490566 C1.29931549,26.8113208 1.08276291,26.2641509 1.08276291,25.5528302 L1.08276291,3.44716981 C1.08276291,2.79056604 1.35345364,2.18867925 1.73242066,1.80566038 C2.16552582,1.36792453 2.70690728,1.09433962 3.35656503,1.09433962 L83.643435,1.09433962 C84.2930927,1.09433962 84.8344742,1.36792453 85.2675793,1.80566038 C85.7006845,2.24339623 85.9172371,2.84528302 85.9172371,3.44716981 L85.9172371,25.6075472 Z" id="Shape"></path>
                            <path d="M92.2021277,31.197411 C94.1170213,30.1521036 96.7765957,29.381877 96.7765957,29.381877 L83,23 L87.6808511,37.8543689 C87.6808511,37.8543689 88.7446809,35.1585761 89.9148936,33.3430421 L95.712766,40 L98,37.8543689 L92.2021277,31.197411 Z" id="Path"></path>
                            <path d="M13.2755706,7 L13.2755706,9.32142857 L7.39898563,9.33071429 L7.43617921,12.3764286 L11.6390533,12.3485714 L11.6483516,14.7071429 L7.39898563,14.7071429 L7.41758242,19.9907143 L5.04649197,19.9814286 L5,7 L13.2755706,7 Z M21.7185123,7.18571429 L21.7928994,7.21357143 L21.830093,7.22285714 L21.8672866,7.24142857 L21.9416737,7.26928571 L22.0160609,7.30642857 L22.0811496,7.33428571 L22.2299239,7.40857143 L22.2950127,7.455 L22.3601014,7.49214286 L22.4344886,7.53857143 L22.490279,7.585 L22.5553677,7.63142857 L22.6204565,7.68714286 L22.6855452,7.73357143 L22.7413356,7.78928571 L22.797126,7.85428571 L22.9087067,7.96571429 L22.9551986,8.03071429 L23.010989,8.09571429 L23.057481,8.15142857 L23.103973,8.21642857 L23.1504649,8.29071429 L23.1969569,8.35571429 L23.2341505,8.43 L23.2806424,8.50428571 L23.317836,8.56928571 L23.3550296,8.64357143 L23.3829248,8.71785714 L23.4201183,8.79214286 L23.4480135,8.86642857 L23.4759087,8.95 L23.5038039,9.02428571 L23.5224007,9.09857143 L23.5502959,9.17285714 L23.5595943,9.25642857 L23.578191,9.33071429 L23.5874894,9.41428571 L23.5967878,9.48857143 L23.6060862,9.57214286 L23.6060862,9.64642857 L23.6153846,9.71142857 L23.6153846,9.88785714 L23.624683,9.925 L23.624683,10.1385714 L23.6153846,11.8285714 L23.6060862,11.8842857 L23.6060862,12.0328571 L23.5967878,12.0792857 L23.5967878,12.1257143 L23.5874894,12.1721429 L23.5874894,12.2185714 L23.5688926,12.3114286 L23.5688926,12.33 L23.5595943,12.3392857 L23.5595943,12.4042857 L23.5502959,12.4414286 L23.5409975,12.4692857 L23.5409975,12.4878571 L23.5316991,12.4971429 L23.5316991,12.5342857 L23.5224007,12.5714286 L23.5131023,12.6178571 L23.4945055,12.655 L23.4852071,12.7014286 L23.4666103,12.7757143 L23.4480135,12.8128571 L23.4387151,12.8592857 L23.4201183,12.8964286 L23.4108199,12.9335714 L23.3922232,12.9707143 L23.3829248,12.98 L23.3736264,12.9985714 L23.3736264,13.0078571 L23.3550296,13.0357143 L23.3457312,13.0728571 L23.3271344,13.11 L23.317836,13.11 L23.317836,13.1285714 L23.3085376,13.1471429 L23.2899408,13.175 L23.271344,13.2121429 L23.2434489,13.2492857 L23.2248521,13.2771429 L23.1969569,13.3328571 L23.1783601,13.3421429 L23.1504649,13.3978571 L23.1411665,13.4071429 L23.1132713,13.4442857 L23.0946746,13.4721429 L23.0667794,13.5 L23.0481826,13.5278571 L23.0388842,13.5371429 L23.0295858,13.5371429 L23.010989,13.5742857 L23.0016906,13.5742857 L23.0016906,13.5835714 L22.9459003,13.6392857 L22.9273035,13.6671429 L22.8994083,13.6857143 L22.8715131,13.7135714 L22.7599324,13.8064286 L22.7227388,13.8435714 L22.704142,13.8528571 L22.6762468,13.8807143 L22.6390533,13.8992857 L22.5832629,13.955 L22.5088757,13.9921429 L22.4809806,14.02 L22.443787,14.0385714 L22.4065934,14.0664286 L22.3693998,14.085 L22.3043111,14.1221429 L22.1555368,14.1964286 L22.090448,14.2242857 L22.0160609,14.2614286 L21.9416737,14.2892857 L21.876585,14.3078571 L21.8021978,14.3264286 L21.737109,14.3542857 L21.6999155,14.3542857 L21.6441251,14.3728571 L21.6069315,14.3821429 L21.5511412,14.3914286 L21.4953508,14.41 L21.4674556,14.41 L21.4488588,14.4192857 L21.3930685,14.4285714 L21.3093829,14.4285714 L21.2721893,14.4378571 L21.0862215,14.4378571 L23.6990702,19.9907143 L21.1327134,19.9907143 L18.4454776,14.4657143 L17.7852916,14.4657143 L17.79459,20 L15.432798,20 L15.4142012,7.01857143 L20.1935757,7.00928571 L20.3144548,7 L20.5283178,7 L20.6398986,7.00928571 L20.7421809,7.00928571 L20.8351648,7.01857143 L20.9374472,7.02785714 L21.0304311,7.03714286 L21.123415,7.05571429 L21.216399,7.065 L21.4023669,7.10214286 L21.4860524,7.12071429 L21.5604396,7.13928571 L21.6441251,7.16714286 L21.7185123,7.18571429 Z M20.816568,9.47928571 L20.7328825,9.46071429 L20.6584954,9.44214286 L20.6120034,9.43285714 L20.5748098,9.42357143 L20.4911243,9.41428571 L20.3981403,9.405 L17.8131868,9.405 L17.8224852,12.1814286 L20.202874,12.1721429 L20.6120034,12.1721429 L20.6677937,12.1535714 L20.6956889,12.1535714 L20.7514793,12.135 L20.7793745,12.1164286 L20.816568,12.1071429 L20.8258664,12.0978571 L20.8351648,12.0978571 L20.8351648,12.0885714 L20.8909552,12.0514286 L20.9281488,12.0328571 L20.9746407,11.9864286 L21.0025359,11.9678571 L21.0862215,11.8842857 L21.0862215,11.8657143 L21.0955199,11.8657143 L21.1141167,11.8285714 L21.123415,11.8192857 L21.1420118,11.7821429 L21.1513102,11.745 L21.169907,11.7078571 L21.169907,11.6892857 L21.1792054,11.68 L21.1792054,11.6614286 L21.1885038,11.6428571 L21.1885038,11.615 L21.1978022,11.5964286 L21.1978022,11.5778571 L21.2071006,11.5314286 L21.2071006,11.3921429 L21.216399,11.3828571 L21.2071006,11.3828571 L21.2071006,10.3057143 L21.216399,10.3057143 L21.216399,10.1571429 L21.2071006,10.1385714 L21.2071006,10.055 L21.1978022,10.0364286 L21.1978022,9.98071429 L21.1885038,9.95285714 L21.1792054,9.91571429 L21.1792054,9.87857143 L21.1606086,9.80428571 L21.1420118,9.76714286 L21.1327134,9.73928571 L21.1141167,9.70214286 L21.0769231,9.64642857 L20.9839391,9.55357143 L20.956044,9.535 L20.9188504,9.51642857 L20.8909552,9.50714286 L20.8537616,9.48857143 L20.816568,9.47928571 Z M34.1690617,9.39571429 L28.4040575,9.42357143 L28.3668639,12.3857143 L32.6255283,12.3857143 L32.6255283,14.7164286 L28.3947591,14.7257143 L28.3947591,17.6228571 L34.2434489,17.5857143 L34.2434489,19.9442857 L26.0143702,19.9907143 L25.9585799,7 L34.1783601,7 L34.1690617,9.39571429 Z M44.7692308,9.39571429 L39.0042265,9.42357143 L38.967033,12.3857143 L43.2256974,12.3857143 L43.2256974,14.7164286 L38.9949281,14.7257143 L38.9949281,17.6228571 L44.8436179,17.5857143 L44.8436179,19.9442857 L36.6145393,19.9907143 L36.5587489,7 L44.7785292,7 L44.7692308,9.39571429 Z M58.8841927,7.18571429 L58.9585799,7.21357143 L58.9957735,7.22285714 L59.032967,7.24142857 L59.1073542,7.26928571 L59.1817413,7.30642857 L59.2468301,7.33428571 L59.3956044,7.40857143 L59.4606932,7.455 L59.5257819,7.49214286 L59.6001691,7.53857143 L59.6559594,7.585 L59.7210482,7.63142857 L59.7861369,7.68714286 L59.8512257,7.73357143 L59.9070161,7.78928571 L59.9628064,7.85428571 L60.0743872,7.96571429 L60.1208791,8.03071429 L60.1766695,8.09571429 L60.2231615,8.15142857 L60.2696534,8.21642857 L60.3161454,8.29071429 L60.3626374,8.35571429 L60.3998309,8.43 L60.4463229,8.50428571 L60.4835165,8.56928571 L60.5207101,8.64357143 L60.5486052,8.71785714 L60.5857988,8.79214286 L60.613694,8.86642857 L60.6415892,8.95 L60.6694844,9.02428571 L60.6880811,9.09857143 L60.7159763,9.17285714 L60.7252747,9.25642857 L60.7438715,9.33071429 L60.7531699,9.41428571 L60.7624683,9.48857143 L60.7717667,9.57214286 L60.7717667,9.64642857 L60.7810651,9.71142857 L60.7810651,9.88785714 L60.7903635,9.925 L60.7903635,10.1385714 L60.7810651,11.8285714 L60.7717667,11.8842857 L60.7717667,12.0328571 L60.7624683,12.0792857 L60.7624683,12.1257143 L60.7531699,12.1721429 L60.7531699,12.2185714 L60.7345731,12.3114286 L60.7345731,12.33 L60.7252747,12.3392857 L60.7252747,12.4042857 L60.7159763,12.4414286 L60.7066779,12.4692857 L60.7066779,12.4878571 L60.6973795,12.4971429 L60.6973795,12.5342857 L60.6880811,12.5714286 L60.6787828,12.6178571 L60.660186,12.655 L60.6508876,12.7014286 L60.6322908,12.7757143 L60.613694,12.8128571 L60.6043956,12.8592857 L60.5857988,12.8964286 L60.5765004,12.9335714 L60.5579036,12.9707143 L60.5486052,12.98 L60.5393068,12.9985714 L60.5393068,13.0078571 L60.5207101,13.0357143 L60.5114117,13.0728571 L60.4928149,13.11 L60.4835165,13.11 L60.4835165,13.1285714 L60.4742181,13.1471429 L60.4556213,13.175 L60.4370245,13.2121429 L60.4091293,13.2492857 L60.3905325,13.2771429 L60.3626374,13.3328571 L60.3440406,13.3421429 L60.3161454,13.3978571 L60.306847,13.4071429 L60.2789518,13.4442857 L60.260355,13.4721429 L60.2324598,13.5 L60.2138631,13.5278571 L60.2045647,13.5371429 L60.1952663,13.5371429 L60.1766695,13.5742857 L60.1673711,13.5742857 L60.1673711,13.5835714 L60.1115807,13.6392857 L60.0929839,13.6671429 L60.0650888,13.6857143 L60.0371936,13.7135714 L59.9256128,13.8064286 L59.8884193,13.8435714 L59.8698225,13.8528571 L59.8419273,13.8807143 L59.8047337,13.8992857 L59.7489434,13.955 L59.6745562,13.9921429 L59.646661,14.02 L59.6094675,14.0385714 L59.5722739,14.0664286 L59.5350803,14.085 L59.4699915,14.1221429 L59.3212172,14.1964286 L59.2561285,14.2242857 L59.1817413,14.2614286 L59.1073542,14.2892857 L59.0422654,14.3078571 L58.9678783,14.3264286 L58.9027895,14.3542857 L58.8655959,14.3542857 L58.8098056,14.3728571 L58.772612,14.3821429 L58.7168216,14.3914286 L58.6610313,14.41 L58.6331361,14.41 L58.6145393,14.4192857 L58.5587489,14.4285714 L58.4750634,14.4285714 L58.4378698,14.4378571 L58.2519019,14.4378571 L60.8647506,19.9907143 L58.2983939,19.9907143 L55.6111581,14.4657143 L54.9509721,14.4657143 L54.9602705,20 L52.5984784,20 L52.5798817,7.01857143 L57.3592561,7.00928571 L57.4801352,7 L57.6939983,7 L57.805579,7.00928571 L57.9078614,7.00928571 L58.0008453,7.01857143 L58.1031276,7.02785714 L58.1961116,7.03714286 L58.2890955,7.05571429 L58.3820795,7.065 L58.5680473,7.10214286 L58.6517329,7.12071429 L58.72612,7.13928571 L58.8098056,7.16714286 L58.8841927,7.18571429 Z M57.9822485,9.47928571 L57.898563,9.46071429 L57.8241758,9.44214286 L57.7776839,9.43285714 L57.7404903,9.42357143 L57.6568047,9.41428571 L57.5638208,9.405 L54.9788673,9.405 L54.9881657,12.1814286 L57.3685545,12.1721429 L57.7776839,12.1721429 L57.8334742,12.1535714 L57.8613694,12.1535714 L57.9171598,12.135 L57.9450549,12.1164286 L57.9822485,12.1071429 L57.9915469,12.0978571 L58.0008453,12.0978571 L58.0008453,12.0885714 L58.0566357,12.0514286 L58.0938292,12.0328571 L58.1403212,11.9864286 L58.1682164,11.9678571 L58.2519019,11.8842857 L58.2519019,11.8657143 L58.2612003,11.8657143 L58.2797971,11.8285714 L58.2890955,11.8192857 L58.3076923,11.7821429 L58.3169907,11.745 L58.3355875,11.7078571 L58.3355875,11.6892857 L58.3448859,11.68 L58.3448859,11.6614286 L58.3541843,11.6428571 L58.3541843,11.615 L58.3634827,11.5964286 L58.3634827,11.5778571 L58.3727811,11.5314286 L58.3727811,11.3921429 L58.3820795,11.3828571 L58.3727811,11.3828571 L58.3727811,10.3057143 L58.3820795,10.3057143 L58.3820795,10.1571429 L58.3727811,10.1385714 L58.3727811,10.055 L58.3634827,10.0364286 L58.3634827,9.98071429 L58.3541843,9.95285714 L58.3448859,9.91571429 L58.3448859,9.87857143 L58.3262891,9.80428571 L58.3076923,9.76714286 L58.2983939,9.73928571 L58.2797971,9.70214286 L58.2426036,9.64642857 L58.1496196,9.55357143 L58.1217244,9.535 L58.0845309,9.51642857 L58.0566357,9.50714286 L58.0194421,9.48857143 L57.9822485,9.47928571 Z M71.3347422,9.39571429 L65.569738,9.42357143 L65.5325444,12.3857143 L69.7912088,12.3857143 L69.7912088,14.7164286 L65.5604396,14.7257143 L65.5604396,17.6228571 L71.4091293,17.5857143 L71.4091293,19.9442857 L63.1800507,19.9907143 L63.1242604,7 L71.3440406,7 L71.3347422,9.39571429 Z M79.7125951,7.065 L79.7962806,7.07428571 L79.8706678,7.09285714 L79.9450549,7.10214286 L80.0194421,7.13 L80.0845309,7.14857143 L80.3076923,7.23214286 L80.3727811,7.26928571 L80.4471682,7.30642857 L80.6424345,7.41785714 L80.7075232,7.46428571 L80.7633136,7.50142857 L80.9306847,7.64071429 L80.9864751,7.69642857 L81.0422654,7.74285714 L81.0980558,7.79857143 L81.1538462,7.845 L81.2561285,7.96571429 L81.3491124,8.07714286 L81.4049028,8.13285714 L81.4513948,8.19785714 L81.4885883,8.25357143 L81.5350803,8.31857143 L81.646661,8.51357143 L81.6745562,8.57857143 L81.7117498,8.64357143 L81.7675402,8.77357143 L81.7861369,8.83857143 L81.8140321,8.90357143 L81.8326289,8.97785714 L81.8884193,9.17285714 L81.8977177,9.24714286 L81.9163145,9.32142857 L81.9442096,9.54428571 L81.953508,9.58142857 L81.953508,9.65571429 L81.9628064,9.68357143 L81.9628064,9.82285714 L79.7032967,10.6307143 L79.7032967,10.5657143 L79.6754015,10.3707143 L79.6754015,10.2592857 L79.6661031,10.2035714 L79.6661031,10.1107143 L79.6568047,10.0642857 L79.6475063,10.0085714 L79.6382079,9.98071429 L79.6382079,9.96214286 L79.6196112,9.90642857 L79.6010144,9.86 L79.6010144,9.84142857 L79.591716,9.83214286 L79.5824176,9.80428571 L79.5638208,9.75785714 L79.545224,9.73 L79.5359256,9.70214286 L79.498732,9.65571429 L79.4801352,9.63714286 L79.4615385,9.60928571 L79.4243449,9.57214286 L79.3778529,9.535 L79.3220626,9.49785714 L79.2104818,9.44214286 L79.1825866,9.43285714 L79.1453931,9.41428571 L79.1174979,9.405 L79.0803043,9.39571429 L79.0152156,9.37714286 L78.978022,9.37714286 L78.9501268,9.36785714 L78.9129332,9.36785714 L78.8757396,9.35857143 L78.6897718,9.35857143 L77.0532544,9.36785714 L76.9788673,9.37714286 L76.8951817,9.37714286 L76.8207946,9.38642857 L76.7557058,9.39571429 L76.6813187,9.41428571 L76.4860524,9.47 L76.430262,9.49785714 L76.3837701,9.52571429 L76.3558749,9.54428571 L76.3279797,9.55357143 L76.2907861,9.59071429 L76.262891,9.60928571 L76.2442942,9.63714286 L76.2256974,9.65571429 L76.216399,9.68357143 L76.1606086,9.76714286 L76.1513102,9.795 L76.123415,9.85071429 L76.0955199,9.91571429 L76.0862215,9.94357143 L76.0769231,9.98071429 L76.0583263,10.0457143 L76.0490279,10.1014286 L76.0397295,10.1385714 L76.0397295,10.1942857 L76.0304311,10.2221429 L76.0304311,10.3335714 L76.0583263,16.4528571 L76.0583263,16.5642857 L76.0490279,16.6757143 L76.0490279,16.7221429 L76.0583263,16.7685714 L76.0583263,16.8707143 L76.0676247,16.9171429 L76.0676247,16.9635714 L76.0769231,17.01 L76.0769231,17.0471429 L76.0862215,17.0842857 L76.0955199,17.1307143 L76.0955199,17.1678571 L76.1048183,17.205 L76.1141167,17.2328571 L76.1327134,17.27 L76.1513102,17.335 L76.1606086,17.3628571 L76.1792054,17.3907143 L76.1885038,17.4092857 L76.2256974,17.465 L76.2814877,17.5207143 L76.3093829,17.5392857 L76.3279797,17.5578571 L76.3465765,17.5671429 L76.3744717,17.5857143 L76.4674556,17.6228571 L76.523246,17.6414286 L76.5790363,17.6507143 L76.6348267,17.6692857 L76.6906171,17.6785714 L76.7464074,17.6785714 L76.8021978,17.6878571 L76.8207946,17.6878571 L78.8757396,17.6692857 L78.885038,17.6692857 L78.9129332,17.66 L78.9594252,17.66 L78.9873204,17.6507143 L79.0245139,17.6507143 L79.0617075,17.6414286 L79.1081995,17.6414286 L79.1267963,17.6321429 L79.1546915,17.6321429 L79.1732883,17.6228571 L79.2011834,17.6135714 L79.2476754,17.595 L79.2755706,17.5857143 L79.2941674,17.5671429 L79.3127642,17.5578571 L79.3406593,17.5392857 L79.3592561,17.5207143 L79.3871513,17.5021429 L79.4057481,17.4835714 L79.4243449,17.4557143 L79.4522401,17.4371429 L79.4801352,17.4092857 L79.5359256,17.3257143 L79.5359256,17.3164286 L79.545224,17.3164286 L79.5545224,17.2978571 L79.5545224,17.2792857 L79.5638208,17.2792857 L79.5638208,17.27 L79.5824176,17.2328571 L79.5824176,17.2235714 L79.591716,17.205 L79.6010144,17.1678571 L79.6103128,17.14 L79.6196112,17.1214286 L79.6196112,17.1028571 L79.6382079,17.0285714 L79.6382079,16.685 L79.6289096,16.5085714 L79.6289096,16.1371429 L78.2248521,16.1278571 L78.2434489,13.825 L81.9907016,13.825 L81.9907016,14.7814286 L82,14.9114286 L82,16.2764286 L81.9907016,16.3228571 L81.9907016,16.5642857 L81.9721048,16.88 L81.953508,17.2142857 L81.953508,17.2514286 L81.9442096,17.2978571 L81.9349112,17.3721429 L81.9349112,17.4092857 L81.9256128,17.4557143 L81.9163145,17.53 L81.8977177,17.6135714 L81.8884193,17.6414286 L81.8884193,17.6692857 L81.8791209,17.6785714 L81.8791209,17.6971429 L81.8698225,17.7157143 L81.8419273,17.8271429 L81.8140321,17.8921429 L81.7954353,17.9664286 L81.7675402,18.0314286 L81.7489434,18.0964286 L81.693153,18.2264286 L81.6652578,18.2821429 L81.646661,18.3471429 L81.6280642,18.3842857 L81.6187658,18.3935714 L81.6187658,18.4028571 L81.5629755,18.5142857 L81.5536771,18.5421429 L81.5350803,18.57 L81.5257819,18.5978571 L81.4699915,18.6814286 L81.4420964,18.7278571 L81.4049028,18.7835714 L81.3677092,18.83 L81.2933221,18.9414286 L81.2468301,18.9878571 L81.1073542,19.155 L80.9492815,19.3128571 L80.8934911,19.3592857 L80.8469992,19.4057143 L80.7912088,19.4521429 L80.7354184,19.4892857 L80.6889265,19.5264286 L80.6331361,19.5542857 L80.5866441,19.5914286 L80.4750634,19.6471429 L80.419273,19.6842857 L80.3541843,19.7121429 L80.2890955,19.7492857 L80.2240068,19.7771429 L80.158918,19.8142857 L80.0938292,19.8421429 L80.0287405,19.8607143 L79.9636517,19.8885714 L79.898563,19.9071429 L79.8427726,19.9257143 L79.7776839,19.935 L79.6661031,19.9535714 L79.5266272,19.9535714 L79.4801352,19.9628571 L79.1453931,19.9628571 L79.1081995,19.9721429 L78.1783601,19.9721429 L78.0481826,19.9814286 L76.9044801,19.9814286 L76.8207946,19.9907143 L76.3000845,19.9907143 L76.0025359,19.9535714 L75.8723584,19.9164286 L75.7328825,19.8792857 L75.5934066,19.8328571 L75.5190194,19.805 L75.4539307,19.7771429 L75.3795435,19.7492857 L75.3144548,19.7214286 L75.2400676,19.6935714 L75.1749789,19.6657143 L75.1098901,19.6285714 L75.0448014,19.6007143 L74.989011,19.5635714 L74.9239222,19.5264286 L74.8681319,19.48 L74.8123415,19.4428571 L74.7565511,19.3964286 L74.7100592,19.3592857 L74.5984784,19.2664286 L74.5054945,19.1735714 L74.4032122,19.0807143 L74.3567202,19.0342857 L74.3102282,18.9785714 L74.2730347,18.9228571 L74.2265427,18.8671429 L74.1521555,18.7557143 L74.114962,18.6907143 L74.0870668,18.635 L74.0498732,18.57 L73.9661877,18.375 L73.9475909,18.31 L73.9196957,18.245 L73.9010989,18.18 L73.8732037,18.115 L73.8360101,17.9757143 L73.8174134,17.9107143 L73.7988166,17.855 L73.7709214,17.725 L73.7523246,17.6692857 L73.7430262,17.6135714 L73.7337278,17.5485714 L73.7244294,17.4928571 L73.7058326,17.4371429 L73.7058326,17.3814286 L73.6965342,17.3257143 L73.6872358,17.2792857 L73.6872358,17.1771429 L73.6593407,10.0642857 L73.6593407,9.99 L73.6686391,9.925 L73.6686391,9.86 L73.6779374,9.795 L73.6779374,9.73928571 L73.6872358,9.68357143 L73.6872358,9.62785714 L73.6965342,9.57214286 L73.6965342,9.52571429 L73.7058326,9.47928571 L73.7058326,9.43285714 L73.715131,9.38642857 L73.715131,9.34928571 L73.7337278,9.275 L73.7337278,9.23785714 L73.7523246,9.17285714 L73.761623,9.10785714 L73.7988166,8.97785714 L73.8267117,8.91285714 L73.8453085,8.84785714 L73.9010989,8.71785714 L73.9661877,8.57857143 L74.0312764,8.45785714 L74.1056636,8.32785714 L74.1800507,8.20714286 L74.2265427,8.14214286 L74.2637363,8.07714286 L74.3567202,7.96571429 L74.4125106,7.90071429 L74.4590025,7.845 L74.5147929,7.78928571 L74.5705833,7.74285714 L74.682164,7.63142857 L74.7379544,7.585 L74.8030431,7.53857143 L74.8588335,7.49214286 L74.9239222,7.455 L74.989011,7.40857143 L75.0540997,7.37142857 L75.1842773,7.30642857 L75.3237532,7.24142857 L75.4539307,7.17642857 L75.5934066,7.13 L75.6584954,7.10214286 L75.8072697,7.065 L75.8816568,7.05571429 L75.956044,7.03714286 L76.0304311,7.02785714 L76.1978022,7.02785714 L76.5046492,7.01857143 L76.6627219,7.01857143 L76.8207946,7.00928571 L76.8393914,7.00928571 L79.0989011,7 L79.2569738,7.01857143 L79.3406593,7.01857143 L79.4243449,7.02785714 L79.5731192,7.04642857 L79.7125951,7.065 Z" id="freereg"></path>
                        </g>
                    </g>
                </g>
            </g>
        </g>
    </g>
</svg>